…
Missing 48h measurement by ICU stay:
# A tibble: 2 × 5
  missing_48h     n median_icu_hours min_icu_hours max_icu_hours
  <lgl>       <int>            <dbl>         <dbl>         <dbl>
1 FALSE         507             95.5          36.5         1534.
2 TRUE          352             22.2           1.2          548.

Missing data (%):
# A tibble: 25 × 2
   variable    pct_missing
   <chr>             <dbl>
 1 hb_48h             41  
 2 hb_48h_time        41  
 3 crp_24h            37.7
 4 bilirubin          16.3
 5 crp                15.9
 6 kreatinin          15.9
 7 tpk                14.6
 8 mch                14.1
 9 mcv                14.1
10 lpk                14.1
# ℹ 15 more rows
# ℹ Use `print(n = ...)` to see more rows
…
